{
  "project_info": {
    "project_number": "342811172785",
    "firebase_url": "https://cifrasyletras-f5823.firebaseio.com",
    "project_id": "cifrasyletras-f5823",
    "storage_bucket": "cifrasyletras-f5823.appspot.com"
  },
  "client": [
    {
      "client_info": {
        "mobilesdk_app_id": "1:342811172785:android:f62f85fcae408be3",
        "android_client_info": {
          "package_name": "org.dresoft.cyl"
        }
      },
      "oauth_client": [
        {
          "client_id": "342811172785-01ifdrhq9ng0npg06sbho7l2e3embi87.apps.googleusercontent.com",
          "client_type": 3
        }
      ],
      "api_key": [
        {
          "current_key": "AIzaSyCoum5oTY_D0OAzdUaUO0bnvEY-5MkkWFI"
        }
      ],
      "services": {
        "analytics_service": {
          "status": 1
        },
        "appinvite_service": {
          "status": 1,
          "other_platform_oauth_client": []
        },
        "ads_service": {
          "status": 2
        }
      }
    },
    {
      "client_info": {
        "mobilesdk_app_id": "1:342811172785:android:0d6ff5fbc8d82f1a",
        "android_client_info": {
          "package_name": "org.dresoft.cylPremium"
        }
      },
      "oauth_client": [
        {
          "client_id": "342811172785-01ifdrhq9ng0npg06sbho7l2e3embi87.apps.googleusercontent.com",
          "client_type": 3
        }
      ],
      "api_key": [
        {
          "current_key": "AIzaSyCoum5oTY_D0OAzdUaUO0bnvEY-5MkkWFI"
        }
      ],
      "services": {
        "analytics_service": {
          "status": 1
        },
        "appinvite_service": {
          "status": 1,
          "other_platform_oauth_client": []
        },
        "ads_service": {
          "status": 2
        }
      }
    }
  ],
  "configuration_version": "1"
}
